[consts code]
-1
None
'A'
<code object A at 0xb782e188, file "gc_uncollectable.py", line 4>
'B'
<code object B at 0xb782e068, file "gc_uncollectable.py", line 7>

[names]
gc
object
A
B
set_debug
DEBUG_STATS
DEBUG_LEAK
a
b
collect

[disassembled code]
  2           0 LOAD_CONST               0 (-1)
              3 LOAD_CONST               1 (None)
              6 IMPORT_NAME              0 (gc)
              9 STORE_NAME               0 (gc)

  4          12 LOAD_CONST               2 ('A')
             15 LOAD_NAME                1 (object)
             18 BUILD_TUPLE              1
             21 LOAD_CONST               3 (<code object A at 0xb782e188, file "gc_uncollectable.py", line 4>)
             24 MAKE_FUNCTION            0
             27 CALL_FUNCTION            0
             30 BUILD_CLASS         
             31 STORE_NAME               2 (A)

  7          34 LOAD_CONST               4 ('B')
             37 LOAD_NAME                1 (object)
             40 BUILD_TUPLE              1
             43 LOAD_CONST               5 (<code object B at 0xb782e068, file "gc_uncollectable.py", line 7>)
             46 MAKE_FUNCTION            0
             49 CALL_FUNCTION            0
             52 BUILD_CLASS         
             53 STORE_NAME               3 (B)

 11          56 LOAD_NAME                0 (gc)
             59 LOAD_ATTR                4 (set_debug)
             62 LOAD_NAME                0 (gc)
             65 LOAD_ATTR                5 (DEBUG_STATS)
             68 LOAD_NAME                0 (gc)
             71 LOAD_ATTR                6 (DEBUG_LEAK)
             74 BINARY_OR           
             75 CALL_FUNCTION            1
             78 POP_TOP             

 13          79 LOAD_NAME                2 (A)
             82 CALL_FUNCTION            0
             85 STORE_NAME               7 (a)

 14          88 LOAD_NAME                3 (B)
             91 CALL_FUNCTION            0
             94 STORE_NAME               8 (b)

 16          97 LOAD_NAME                8 (b)
            100 LOAD_NAME                7 (a)
            103 STORE_ATTR               8 (b)

 17         106 LOAD_NAME                7 (a)
            109 LOAD_NAME                8 (b)
            112 STORE_ATTR               7 (a)

 19         115 DELETE_NAME              7 (a)

 20         118 DELETE_NAME              8 (b)

 22         121 LOAD_NAME                0 (gc)
            124 LOAD_ATTR                9 (collect)
            127 CALL_FUNCTION            0
            130 POP_TOP             

 23         131 PRINT_NEWLINE       

 24         132 LOAD_NAME                0 (gc)
            135 LOAD_ATTR                9 (collect)
                `----> gc->type->PyObject_GenericGetAttr('collect')
		     < gc.__dict__['collect']() >
            138 CALL_FUNCTION            0
            141 POP_TOP             
            142 LOAD_CONST               1 (None)
            145 RETURN_VALUE        
